TIFF tag reference. — get_tiff_tags_reference • ijtiff
…
defaultthe default value of the data held in the TIFF tag

    Examples

get_tiff_tags_reference()
#> # A tibble: 96 x 10
#>    code_dec code_hex name  short_descripti… type  url   libtiff_name c_type
#>       <int> <chr>    <chr> <chr>            <chr> <chr> <chr>        <chr> 
#>  1      254 00FE     NewS… A general indic… base… http… TIFFTAG_SUB… LONG  
#>  2      255 00FF     Subf… A general indic… base… http… TIFFTAG_OSU… SHORT 
#>  3      256 0100     Imag… The number of c… base… http… TIFFTAG_IMA… SHORT…
#>  4      257 0101     Imag… The number of r… base… http… TIFFTAG_IMA… SHORT…
#>  5      258 0102     Bits… Number of bits … base… http… TIFFTAG_BIT… SHORT 
#>  6      259 0103     Comp… Compression sch… base… http… TIFFTAG_COM… SHORT 
#>  7      262 0106     Phot… The color space… base… http… TIFFTAG_PHO… SHORT 
#>  8      263 0107     Thre… For black and w… base… http… TIFFTAG_THR… SHORT 
#>  9      264 0108     Cell… The width of th… base… http… TIFFTAG_CEL… SHORT 
#> 10      265 0109     Cell… The length of t… base… http… TIFFTAG_CEL… SHORT 
#> # ... with 86 more rows, and 2 more variables: count <chr>, default <chr>
…
